{
    "status": "applied",
    "storage": {
        "prim": "Pair",
        "args": [
            {
                "prim": "Pair",
                "args": [
                    {
                        "int": "1596701433"
                    },
                    {
                        "int": "44025"
                    }
                ]
            },
            {
                "bytes": "00003b5d4596c032347b72fb51f688c45200d0cb50db"
            }
        ]
    },
    "consumed_gas": "21787",
    "storage_size": "527"
}
